{
  "Comment.nvim": { "branch": "master", "commit": "e30b7f2008e52442154b66f7c519bfd2f1e32acb" },
  "LuaSnip": { "branch": "master", "commit": "45db5addf8d0a201e1cf247cae4cdce605ad3768" },
  "alpha-nvim": { "branch": "main", "commit": "b6f4129302db197a7249e67a90de3f2b676de13e" },
  "auto-session": { "branch": "main", "commit": "6cd7e4d44bf9b1d8bd60e19db7f87204e533ec2c" },
  "catppuccin": { "branch": "main", "commit": "4fd72a9ab64b393c2c22b168508fd244877fec96" },
  "cmp-buffer": { "branch": "main", "commit": "3022dbc9166796b644a841a02de8dd1cc1d311fa" },
  "cmp-path": { "branch": "main", "commit": "91ff86cd9c29299a64f968ebb45846c485725f23" },
  "cmp_luasnip": { "branch": "master", "commit": "05a9ab28b53f71d1aece421ef32fee2cb857a843" },
  "conform.nvim": { "branch": "master", "commit": "0ebe875d9c306f5fc829db38492ffff2a70d8e9d" },
  "copilot.vim": { "branch": "release", "commit": "782461159655b259cff10ecff05efa761e3d4764" },
  "dressing.nvim": { "branch": "master", "commit": "c5775a888adbc50652cb370073fcfec963eca93e" },
  "friendly-snippets": { "branch": "main", "commit": "00ebcaa159e817150bd83bfe2d51fa3b3377d5c4" },
  "gitsigns.nvim": { "branch": "main", "commit": "899e993850084ea33d001ec229d237bc020c19ae" },
  "harpoon": { "branch": "master", "commit": "1bc17e3e42ea3c46b33c0bbad6a880792692a1b3" },
  "lazy.nvim": { "branch": "main", "commit": "48b52b5cfcf8f88ed0aff8fde573a5cc20b1306d" },
  "lspkind.nvim": { "branch": "master", "commit": "cff4ae321a91ee3473a92ea1a8c637e3a9510aec" },
  "lualine.nvim": { "branch": "master", "commit": "b431d228b7bbcdaea818bdc3e25b8cdbe861f056" },
  "mason-lspconfig.nvim": { "branch": "main", "commit": "482350b050bd413931c2cdd4857443c3da7d57cb" },
  "mason.nvim": { "branch": "main", "commit": "e2f7f9044ec30067bc11800a9e266664b88cda22" },
  "nvim-autopairs": { "branch": "master", "commit": "fd2badc24e675f947162a16c124d395bde80dbd6" },
  "nvim-cmp": { "branch": "main", "commit": "ae644feb7b67bf1ce4260c231d1d4300b19c6f30" },
  "nvim-colorizer.lua": { "branch": "master", "commit": "194ec600488f7c7229668d0e80bd197f3a2b84ff" },
  "nvim-lint": { "branch": "master", "commit": "debabca63c0905b59ce596a55a8e33eafdf66342" },
  "nvim-lspconfig": { "branch": "master", "commit": "3ad562700d0615818bf358268ac8914f6ce2b079" },
  "nvim-surround": { "branch": "main", "commit": "ec2dc7671067e0086cdf29c2f5df2dd909d5f71f" },
  "nvim-tree.lua": { "branch": "master", "commit": "ea55ef12036897fdc4476b115a395d2a34965c82" },
  "nvim-treesitter": { "branch": "master", "commit": "a1573a9135c608e68cb383f752623527be84bdce" },
  "nvim-treesitter-context": { "branch": "master", "commit": "e6cc783b74606d97ca9eff6494e3f5c2ca603a50" },
  "nvim-treesitter-textobjects": { "branch": "master", "commit": "3a3c6244553f13fdd92d312c82722b57ce6c4bec" },
  "nvim-ts-autotag": { "branch": "main", "commit": "e239a560f338be31337e7abc3ee42515daf23f5e" },
  "nvim-ts-context-commentstring": { "branch": "main", "commit": "375c2d86cee6674afd75b4f727ce3a80065552f7" },
  "nvim-web-devicons": { "branch": "master", "commit": "3722e3d1fb5fe1896a104eb489e8f8651260b520" },
  "plenary.nvim": { "branch": "master", "commit": "ec289423a1693aeae6cd0d503bac2856af74edaa" },
  "rainbow_csv.nvim": { "branch": "main", "commit": "7f3fddfe813641035fac2cdf94c2ff69bb0bf0b9" },
  "telescope-fzf-native.nvim": { "branch": "main", "commit": "cf48d4dfce44e0b9a2e19a008d6ec6ea6f01a83b" },
  "telescope.nvim": { "branch": "0.1.x", "commit": "a0bbec21143c7bc5f8bb02e0005fa0b982edc026" },
  "vim-ReplaceWithRegister": { "branch": "master", "commit": "aad1e8fa31cb4722f20fe40679caa56e25120032" },
  "vim-maximizer": { "branch": "master", "commit": "2e54952fe91e140a2e69f35f22131219fcd9c5f1" },
  "vim-tmux-navigator": { "branch": "master", "commit": "5b3c701686fb4e6629c100ed32e827edf8dad01e" },
  "which-key.nvim": { "branch": "main", "commit": "bfec3d6bc0a9b0b2cb11644642f78c2c3915eef0" }
}
